Detailed Meteorological Data from Stations All Over the World • stationaRy
…
Get meteorological data from met stations located all over the world. That’s what you can do with this R package. There are LOTS of stations too (29,729 available in this dataset) and many have data that go pretty far back in time. The data comes from the Integrated Surface Dataset (ISD), which is maintained by the National Oceanic and Atmospheric Administration (NOAA).

Retrieving Met Data with a station_id

Let’s get some met data from La Guardia Airport in New York City (the station ID value is "725030-14732"). This station has a pretty long history (starting operations in 1973) but we’ll just obtain data from the years of 2017 and 2018.

lga_met_data <-
  get_met_data(
    station_id = "725030-14732",
    years = 2017:2018
  )

lga_met_data
#> # A tibble: 17,520 x 10
#>    id    time                 temp    wd    ws atmos_pres dew_point    rh
#>    <chr> <dttm>              <dbl> <dbl> <dbl>      <dbl>     <dbl> <dbl>
#>  1 7250… 2017-01-01 00:00:00   7.2   230   5.7      1012.      -4.4  43.5
#>  2 7250… 2017-01-01 01:00:00   7.8   230   4.6      1012.      -3.9  43.4
#>  3 7250… 2017-01-01 02:00:00   7.2   230   3.6      1012.      -2.2  51.3
#>  4 7250… 2017-01-01 03:00:00   7.8   240   5.7      1013.      -3.3  45.4
#>  5 7250… 2017-01-01 04:00:00   7.8   240   4.6      1013.      -3.9  43.4
#>  6 7250… 2017-01-01 05:00:00   8.3   240   4.6      1014.      -4.4  40.4
#>  7 7250… 2017-01-01 06:00:00   8.3   250   5.1      1015.      -3.9  41.9
#>  8 7250… 2017-01-01 07:00:00   8.3   260   5.7      1016.      -3.3  43.8
#>  9 7250… 2017-01-01 08:00:00   8.3   240   5.1      1017.      -2.8  45.5
#> 10 7250… 2017-01-01 09:00:00   8.3   260   6.2      1019.      -2.8  45.5
#> # … with 17,510 more rows, and 2 more variables: ceil_hgt <dbl>,
#> #   visibility <dbl>

Discovering Met Stations

At a minimum we need a station’s identifier to obtain its met data. We can start the process of getting an identifier by accessing the entire catalog of station metadata with the get_station_metadata() function. The output tibble has station id values in the first column. Let’s get a subset of stations from that: those stations that are located in Norway.

stations_norway <-
  get_station_metadata() %>%
  dplyr::filter(country == "NO")

stations_norway
#> # A tibble: 405 x 16
#>    id    usaf  wban  name  country state icao    lat   lon  elev begin_date
#>    <chr> <chr> <chr> <chr> <chr>   <chr> <chr> <dbl> <dbl> <dbl> <date>    
#>  1 0100… 0100… 99999 BOGU… NO      <NA>  ENRS   NA   NA     NA   2001-09-27
#>  2 0100… 0100… 99999 JAN … NO      <NA>  ENJA   70.9 -8.67   9   1931-01-01
#>  3 0100… 0100… 99999 ROST  NO      <NA>  <NA>   NA   NA     NA   1986-11-20
#>  4 0100… 0100… 99999 SORS… NO      <NA>  ENSO   59.8  5.34  48.8 1986-11-20
#>  5 0100… 0100… 99999 BRIN… NO      <NA>  <NA>   61.4  5.87 327   1987-01-17
#>  6 0100… 0100… 99999 RORV… NO      <NA>  <NA>   64.8 11.2   14   1987-01-16
#>  7 0100… 0100… 99999 FRIGG NO      <NA>  ENFR   60.0  2.25  48   1988-03-20
#>  8 0100… 0100… 99999 VERL… NO      <NA>  <NA>   80.0 16.2    8   1986-11-09
#>  9 0100… 0100… 99999 HORN… NO      <NA>  <NA>   77   15.5   12   1985-06-01
#> 10 0100… 0100… 99999 NY-A… NO      <NA>  ENAS   78.9 11.9    8   1973-01-01
#> # … with 395 more rows, and 5 more variables: end_date <date>,
#> #   begin_year <int>, end_year <int>, tz_name <chr>, years <list>
…
station_data <-
  get_station_metadata() %>%
  dplyr::filter(name == "JUVVASSHOE") %>%
  dplyr::pull(id) %>%
  get_met_data(years = 2011:2019)

high_temp_data <-
  station_data %>%
  dplyr::select(id, time, wd, ws, temp) %>%
  dplyr::filter(temp > 16) %>%
  dplyr::mutate(temp_f = ((temp * (9/5)) + 32) %>% round(1)) %>%
  dplyr::arrange(dplyr::desc(temp_f))

high_temp_data
#> # A tibble: 50 x 6
#>    id           time                   wd    ws  temp temp_f
#>    <chr>        <dttm>              <dbl> <dbl> <dbl>  <dbl>
#>  1 013620-99999 2019-07-26 15:00:00   160     5  18.5   65.3
#>  2 013620-99999 2019-07-26 17:00:00   210     3  18.4   65.1
#>  3 013620-99999 2019-07-26 18:00:00   180     2  18.3   64.9
#>  4 013620-99999 2019-07-26 16:00:00   180     4  18.2   64.8
#>  5 013620-99999 2014-07-23 16:00:00   270     2  17.6   63.7
#>  6 013620-99999 2019-07-26 14:00:00   150     4  17.5   63.5
#>  7 013620-99999 2014-07-23 17:00:00   300     4  17.3   63.1
#>  8 013620-99999 2019-07-28 16:00:00   130     6  17.3   63.1
#>  9 013620-99999 2014-07-23 18:00:00   280     3  17.2   63  
#> 10 013620-99999 2018-07-04 15:00:00   340     2  17.2   63  
#> # … with 40 more rows

Additional Data Fields

There can be a substantial amount of additional met data beyond wind speed, ambient temperature, etc. However, these additional fields can vary greatly across stations. The nomenclature for the additional categories of data uses ‘two-letter + digit’ identifiers (e.g., AA1, GA1, etc.). Within each category are numerous fields, where the variables are coded as [identifer]_[index]). More information about these additional data fields can be found in this PDF document.

To find out which categories of additional data fields are available for a station, we can use the station_coverage() function. You’ll get a tibble with the available additional categories and their counts over the specified period.

additional_data_fields <-
  get_station_metadata() %>%
  dplyr::filter(name == "JUVVASSHOE") %>%
  dplyr::pull(id) %>%
  station_coverage(years = 2015)

additional_data_fields
#> # A tibble: 87 x 3
#>    id           category count
#>    <chr>        <chr>    <int>
#>  1 013620-99999 AA1          0
#>  2 013620-99999 AB1          0
#>  3 013620-99999 AC1          0
#>  4 013620-99999 AD1          0
#>  5 013620-99999 AE1          0
#>  6 013620-99999 AG1          0
#>  7 013620-99999 AH1          0
#>  8 013620-99999 AI1          0
#>  9 013620-99999 AJ1        194
#> 10 013620-99999 AK1          0
#> # … with 77 more rows
…
