…
``` r
lga_met_data <- 
  get_met_data(
    station_id = "725030-14732",
    startyear = 2017,
    endyear = 2018
  )
```

``` r
lga_met_data
#> # A tibble: 28,254 x 9
#>    id    time                   wd    ws ceil_hgt  temp dew_point
#>    <chr> <dttm>              <int> <dbl>    <int> <dbl>     <dbl>
#>  1 7250… 2016-12-31 19:00:00   200   7.7       NA   6.7      -2.8
#>  2 7250… 2016-12-31 19:51:00   220   5.1     2743   6.7      -3.9
#>  3 7250… 2016-12-31 20:51:00   210   5.1     3048   6.7      -4.4
#>  4 7250… 2016-12-31 21:51:00   200   5.1     2591   6.7      -4.4
#>  5 7250… 2016-12-31 22:00:00   200   5.1       NA   6.7      -4.4
#>  6 7250… 2016-12-31 22:51:00   210   5.1     2134   7.2      -4.4
#>  7 7250… 2016-12-31 23:51:00   230   5.7     2286   7.2      -4.4
#>  8 7250… 2016-12-31 23:59:00    NA  NA         NA  NA        NA  
#>  9 7250… 2016-12-31 23:59:00    NA  NA         NA  NA        NA  
#> 10 7250… 2017-01-01 00:51:00   230   4.6     1402   7.8      -3.9
#> # … with 28,244 more rows, and 2 more variables: atmos_pres <dbl>,
#> #   rh <dbl>
```

There are lots of stations and we at least need an identifier to access
met data. We can examine station metadata using the
`get_station_metadata()` function (which has those ID values in the
first column). Let’s get all of the stations located in Norway.

``` r
stations_norway <- 
  get_station_metadata() %>%
  filter(country == "NO")

stations_norway
#> # A tibble: 405 x 15
#>    id    usaf  wban  name  country state icao    lat   lon  elev begin_date
#>    <chr> <chr> <chr> <chr> <chr>   <chr> <chr> <dbl> <dbl> <dbl> <date>    
#>  1 0100… 0100… 99999 BOGU… NO      <NA>  ENRS   NA   NA     NA   2001-09-27
#>  2 0100… 0100… 99999 JAN … NO      <NA>  ENJA   70.9 -8.67   9   1931-01-01
#>  3 0100… 0100… 99999 ROST  NO      <NA>  <NA>   NA   NA     NA   1986-11-20
#>  4 0100… 0100… 99999 SORS… NO      <NA>  ENSO   59.8  5.34  48.8 1986-11-20
#>  5 0100… 0100… 99999 BRIN… NO      <NA>  <NA>   61.4  5.87 327   1987-01-17
#>  6 0100… 0100… 99999 RORV… NO      <NA>  <NA>   64.8 11.2   14   1987-01-16
#>  7 0100… 0100… 99999 FRIGG NO      <NA>  ENFR   60.0  2.25  48   1988-03-20
#>  8 0100… 0100… 99999 VERL… NO      <NA>  <NA>   80.0 16.2    8   1986-11-09
#>  9 0100… 0100… 99999 HORN… NO      <NA>  <NA>   77   15.5   12   1985-06-01
#> 10 0100… 0100… 99999 NY-A… NO      <NA>  ENAS   78.9 11.9    8   1973-01-01
#> # … with 395 more rows, and 4 more variables: end_date <date>,
#> #   begin_year <int>, end_year <int>, tz_name <chr>
```
…
high_temp_data <-
  station_data %>%
  select(id, time, wd, ws, temp) %>% 
  filter(temp > 16) %>%
  mutate(temp_f = (temp * (9/5)) + 32) %>%
  arrange(desc(temp_f))
```

``` r
high_temp_data
#> # A tibble: 50 x 6
#>    id           time                   wd    ws  temp temp_f
#>    <chr>        <dttm>              <int> <dbl> <dbl>  <dbl>
#>  1 013620-99999 2019-07-26 15:00:00   160     5  18.5   65.3
#>  2 013620-99999 2019-07-26 17:00:00   210     3  18.4   65.1
#>  3 013620-99999 2019-07-26 18:00:00   180     2  18.3   64.9
#>  4 013620-99999 2019-07-26 16:00:00   180     4  18.2   64.8
#>  5 013620-99999 2014-07-23 16:00:00   270     2  17.6   63.7
#>  6 013620-99999 2019-07-26 14:00:00   150     4  17.5   63.5
#>  7 013620-99999 2014-07-23 17:00:00   300     4  17.3   63.1
#>  8 013620-99999 2019-07-28 16:00:00   130     6  17.3   63.1
#>  9 013620-99999 2014-07-23 18:00:00   280     3  17.2   63.0
#> 10 013620-99999 2018-07-04 15:00:00   340     2  17.2   63.0
#> # … with 40 more rows
```
…
``` r
coverage_tbl
#> # A tibble: 124 x 65
#>    id       GA1   GF1   MA1   MW1   OC1   AA1   AJ1   AY1   AZ1   ED1   IA1
#>    <chr>  <dbl> <dbl> <dbl> <dbl> <dbl> <dbl> <dbl> <dbl> <dbl> <dbl> <dbl>
#>  1 01023…   524   526  9095   227    74    NA    NA    NA    NA    NA    NA
#>  2 04063… 16054 16144 14562  5026   734   600   231  1392   187     3   236
#>  3 06209…    NA    NA    NA    NA   544    NA    NA    NA    NA    NA    NA
#>  4 06229…    NA    NA    NA    NA    24    NA    NA    NA    NA    NA    NA
#>  5 06235… 57233 64763 65139    NA  2627 12577     4    NA  5762    19    NA
#>  6 06239… 30553 39281 39357    NA   609    NA    NA    NA  3507    NA    NA
#>  7 06270… 56047 62986 63087    NA  2007 10613    NA    NA  3918    25    NA
#>  8 06277…    NA    NA    NA    NA   781  3053     9    NA    NA    NA    NA
#>  9 06285…    NA    NA    NA    NA  6942    NA    NA    NA    NA    NA    NA
#> 10 06286…    NA    NA    NA    NA   727  3090    12    NA    NA    NA    NA
#> # … with 114 more rows, and 53 more variables: KA1 <dbl>, MD1 <dbl>,
#> #   AW1 <dbl>, IA2 <dbl>, GG1 <dbl>, ME1 <dbl>, AU1 <dbl>, GD1 <dbl>,
#> #   AL1 <dbl>, AN1 <dbl>, AX1 <dbl>, MG1 <dbl>, MV1 <dbl>, OE1 <dbl>,
#> #   AB1 <dbl>, AD1 <dbl>, AE1 <dbl>, AH1 <dbl>, AI1 <dbl>, KB1 <dbl>,
#> #   KC1 <dbl>, KD1 <dbl>, KE1 <dbl>, KG1 <dbl>, MF1 <dbl>, MH1 <dbl>,
#> #   MK1 <dbl>, RH1 <dbl>, AK1 <dbl>, AM1 <dbl>, WA1 <dbl>, UA1 <dbl>,
#> #   UG2 <dbl>, SA1 <dbl>, AO1 <dbl>, CB1 <dbl>, CF1 <dbl>, CG1 <dbl>,
#> #   CH1 <dbl>, CI1 <dbl>, CN1 <dbl>, CN2 <dbl>, CN3 <dbl>, CO1 <dbl>,
#> #   CR1 <dbl>, CT1 <dbl>, CU1 <dbl>, CV1 <dbl>, CW1 <dbl>, GH1 <dbl>,
…
