…
Get data from a station in Norway (with a **USAF** code of `13860`, and a **WBAN** code of `99999`). Specify the `station_id` as a string in the format `[USAF]-[WBAN]`, and, provide beginning and ending years for data collection to `startyear` and `endyear`, respectively.

```R
library(stationaRy)

met_data <- 
  get_isd_station_data(
    station_id = "13860-99999",
    startyear = 2010,
    endyear = 2011)
    
# Display part of the meteorological dataset
met_data
#> # A tibble: 16,474 × 18
#>      usaf  wban  year month   day  hour minute   lat   lon  elev    wd    ws
#>     <chr> <chr> <dbl> <dbl> <dbl> <dbl>  <dbl> <dbl> <dbl> <dbl> <dbl> <dbl>
#> 1  013860 99999  2010     1     1     0      0  60.8  11.1   132    NA    NA
#> 2  013860 99999  2010     1     1     1      0  60.8  11.1   132    NA    NA
#> 3  013860 99999  2010     1    21    15      0  60.8  11.1   132    NA    NA
#> 4  013860 99999  2010     1    21    16      0  60.8  11.1   132    NA    NA
#> 5  013860 99999  2010     1    21    17      0  60.8  11.1   132    NA    NA
#> 6  013860 99999  2010     1    21    18      0  60.8  11.1   132    NA    NA
#> 7  013860 99999  2010     1    21    19      0  60.8  11.1   132    NA    NA
#> 8  013860 99999  2010     1    21    20      0  60.8  11.1   132    NA    NA
#> 9  013860 99999  2010     1    21    21      0  60.8  11.1   132    NA    NA
#> 10 013860 99999  2010     1    21    22      0  60.8  11.1   132    NA    NA
#> # ... with 16,464 more rows, and 6 more variables: ceil_hgt <dbl>, temp <dbl>,
#> #   dew_point <dbl>, atmos_pres <dbl>, rh <dbl>, time <dttm>
```

This is useful if you know the `USAF` and `WBAN` numbers for a particular met station. Most of the time, however, you won't readily have this information. However, you can examine station metadata using the `get_isd_stations()` function (which has those ID values). Without providing any arguments, it provides a tibble for all available stations (with many variables to filter on). All stations in Norway, for example, can be isolated easily by using the `filter()` function from the **dplyr** package after the pipe (`%>%`).

```R
library(stationaRy)
library(dplyr)

# Get a tibble with all stations in Norway
stations_norway <- 
  get_isd_stations() %>% 
  filter(country == "NO")
  
# Preview the dataset
stations_norway
#> # A tibble: 398 × 16
#>     usaf  wban                name country state    lat    lon  elev begin   end
#>    <dbl> <dbl>               <chr>   <chr> <chr>  <dbl>  <dbl> <dbl> <dbl> <dbl>
#> 1  10010 99999 JAN MAYEN(NOR-NAVY)      NO       70.933 -8.667   9.0  1931  2015
#> 2  10014 99999          SORSTOKKEN      NO       59.792  5.341  48.8  1986  2015
#> 3  10015 99999          BRINGELAND      NO       61.383  5.867 327.0  1987  2011
#> 4  10016 99999         RORVIK/RYUM      NO       64.850 11.233  14.0  1987  1991
#> 5  10017 99999               FRIGG      NO       59.980  2.250  48.0  1988  2005
#> 6  10020 99999       VERLEGENHUKEN      NO       80.050 16.250   8.0  1986  2015
#> 7  10030 99999            HORNSUND      NO       77.000 15.500  12.0  1985  2015
#> 8  10040 99999       NY-ALESUND II      NO       78.917 11.933   8.0  1973  2014
#> 9  10060 99999             EDGEOYA      NO       78.250 22.817  14.0  1973  2015
#> 10 10100 99999              ANDOYA      NO       69.293 16.144  13.1  1931  2015
#> # ... with 388 more rows, and 6 more variables: gmt_offset <dbl>, time_zone_id <chr>,
#> #   country_name <chr>, country_code <chr>, iso3166_2_subd <chr>, fips10_4_subd <chr>
```
…
